{  
   "httpStatus":400,
   "apiCode":"062952b8-257f-4fb5-9baf-2d2932375f9d",
   "userMessage":"An Error has occured and the request could not be completed",
   "developerMessage":"Invalid request body see validation errors",
   "validationErrors":[  
      {  
         "fieldName":"name",
         "message":"name must be 10 characters long"
      }
   ]
}